<?xml version="1.0" encoding="UTF-8" standalone="no"?>
<svg
   xmlns:dc="http://purl.org/dc/elements/1.1/"
   xmlns:cc="http://creativecommons.org/ns#"
   xmlns:rdf="http://www.w3.org/1999/02/22-rdf-syntax-ns#"
   xmlns:svg="http://www.w3.org/2000/svg"
   xmlns="http://www.w3.org/2000/svg"
   xmlns:sodipodi="http://sodipodi.sourceforge.net/DTD/sodipodi-0.dtd"
   xmlns:inkscape="http://www.inkscape.org/namespaces/inkscape"
   width="210mm"
   height="297mm"
   viewBox="0 0 210 297"
   version="1.1"
   id="svg8"
   inkscape:version="1.0.1 (3bc2e813f5, 2020-09-07)"
   sodipodi:docname="marc.svg">
  <defs
     id="defs2" />
  <sodipodi:namedview
     id="base"
     pagecolor="#464646"
     bordercolor="#666666"
     borderopacity="1.0"
     inkscape:pageopacity="0"
     inkscape:pageshadow="2"
     inkscape:zoom="0.49497475"
     inkscape:cx="552.00283"
     inkscape:cy="381.61119"
     inkscape:document-units="mm"
     inkscape:current-layer="layer1"
     inkscape:document-rotation="0"
     showgrid="false"
     showguides="false"
     inkscape:window-width="1920"
     inkscape:window-height="1052"
     inkscape:window-x="2040"
     inkscape:window-y="0"
     inkscape:window-maximized="1" />
  <metadata
     id="metadata5">
    <rdf:RDF>
      <cc:Work
         rdf:about="">
        <dc:format>image/svg+xml</dc:format>
        <dc:type
           rdf:resource="http://purl.org/dc/dcmitype/StillImage" />
        <dc:title></dc:title>
      </cc:Work>
    </rdf:RDF>
  </metadata>
  <g
     inkscape:label="Layer 1"
     inkscape:groupmode="layer"
     id="layer1">
    <path
       id="path2019"
       style="fill:#2a9d8f;fill-opacity:1;stroke:none;stroke-width:26.4567;stroke-linecap:round;stroke-linejoin:bevel;stroke-miterlimit:4;stroke-dasharray:none"
       d="m 374.60938,326.97461 c -135.63015,-5e-5 -245.58013,109.94993 -245.58008,245.58008 -5e-5,135.63015 109.94993,245.58013 245.58008,245.58008 135.63015,4e-5 245.58012,-109.94993 245.58007,-245.58008 5e-5,-135.63015 -109.94992,-245.58012 -245.58007,-245.58008 z m -0.4961,47.49414 c 0,0 -116.17285,169.4255 -36.85156,198.79492 79.32131,29.36943 106.31836,-189.52344 106.31836,-189.52344 0,0 251.07594,186.85099 2.04101,359.1875 64.70458,-156.3102 51.91479,-189.90681 3.50048,-167.09142 -12.10358,5.70385 -26.43369,14.93344 -42.33611,26.65283 -15.90242,11.71938 -33.37716,25.92855 -51.77,41.59154 -18.39283,15.66299 -57.82131,-62.80753 -77.39612,-45.27285 -19.57482,17.53467 -19.29598,131.07454 -38.74434,148.40897 0,0 -50.92739,-199.87391 -9.47266,-277.01172 41.45473,-77.13778 144.71094,-95.73633 144.71094,-95.73633 z"
       transform="scale(0.26458333)"
       sodipodi:nodetypes="ssssscsccsssscsc" />
  </g>
</svg>
